﻿1,E2 01/2016,Jevrić,Srđan,Loznica
2,E2 02/2016,Savić,Ana,Novi Sad
3,E1 03/2013,Trajković,Nebojša,Inđija
4,E1 04/2016,Sekulić,Miloš,Beograd
5,E2 05/2016,Babić,Branko,Subotica
6,E2 06/2013,Panić,Marko,Bor
7,E2 07/2011,Glišić,Avram,harlem
-1,22,loren,iv,dd
